{
  "name": "Elastic-Beanstalk-Sample-App",
  "version": "0.0.1",
  "dependencies": {
    "accepts": {
      "version": "1.3.7",
      "from": "accepts@~1.3.7",
      "resolved": "https://registry.npmjs.org/accepts/-/accepts-1.3.7.tgz"
    },
    "array-flatten": {
      "version": "1.1.1",
      "from": "array-flatten@1.1.1",
      "resolved": "https://registry.npmjs.org/array-flatten/-/array-flatten-1.1.1.tgz"
    },
    "aws-sdk": {
      "version": "2.1.39",
      "from": "aws-sdk@latest",
      "resolved": "https://registry.npmjs.org/aws-sdk/-/aws-sdk-2.1.39.tgz",
      "dependencies": {
        "sax": {
          "version": "0.5.3",
          "from": "sax@0.5.3",
          "resolved": "https://registry.npmjs.org/sax/-/sax-0.5.3.tgz"
        },
        "xml2js": {
          "version": "0.2.8",
          "from": "xml2js@0.2.8",
          "resolved": "https://registry.npmjs.org/xml2js/-/xml2js-0.2.8.tgz"
        },
        "xmlbuilder": {
          "version": "0.4.2",
          "from": "xmlbuilder@0.4.2",
          "resolved": "https://registry.npmjs.org/xmlbuilder/-/xmlbuilder-0.4.2.tgz"
        }
      }
    },
    "body-parser": {
      "version": "1.13.2",
      "from": "body-parser@latest",
      "resolved": "https://registry.npmjs.org/body-parser/-/body-parser-1.13.2.tgz",
      "dependencies": {
        "bytes": {
          "version": "2.1.0",
          "from": "bytes@2.1.0",
          "resolved": "https://registry.npmjs.org/bytes/-/bytes-2.1.0.tgz"
        },
        "content-type": {
          "version": "1.0.1",
          "from": "content-type@~1.0.1",
          "resolved": "https://registry.npmjs.org/content-type/-/content-type-1.0.1.tgz"
        },
        "debug": {
          "version": "2.2.0",
          "from": "debug@~2.2.0",
          "resolved": "https://registry.npmjs.org/debug/-/debug-2.2.0.tgz",
          "dependencies": {
            "ms": {
              "version": "0.7.1",
              "from": "ms@0.7.1",
              "resolved": "https://registry.npmjs.org/ms/-/ms-0.7.1.tgz"
            }
          }
        },
        "depd": {
          "version": "1.0.1",
          "from": "depd@~1.0.1",
          "resolved": "https://registry.npmjs.org/depd/-/depd-1.0.1.tgz"
        },
        "http-errors": {
          "version": "1.3.1",
          "from": "http-errors@~1.3.1",
          "resolved": "https://registry.npmjs.org/http-errors/-/http-errors-1.3.1.tgz",
          "dependencies": {
            "inherits": {
              "version": "2.0.1",
              "from": "inherits@~2.0.1",
              "resolved": "https://registry.npmjs.org/inherits/-/inherits-2.0.1.tgz"
            },
            "statuses": {
              "version": "1.2.1",
              "from": "statuses@1",
              "resolved": "https://registry.npmjs.org/statuses/-/statuses-1.2.1.tgz"
            }
          }
        },
        "iconv-lite": {
          "version": "0.4.11",
          "from": "iconv-lite@0.4.11",
          "resolved": "https://registry.npmjs.org/iconv-lite/-/iconv-lite-0.4.11.tgz"
        },
        "on-finished": {
          "version": "2.3.0",
          "from": "on-finished@~2.3.0",
          "resolved": "https://registry.npmjs.org/on-finished/-/on-finished-2.3.0.tgz",
          "dependencies": {
            "ee-first": {
              "version": "1.1.1",
              "from": "ee-first@1.1.1",
              "resolved": "https://registry.npmjs.org/ee-first/-/ee-first-1.1.1.tgz"
            }
          }
        },
        "qs": {
          "version": "4.0.0",
          "from": "qs@4.0.0",
          "resolved": "https://registry.npmjs.org/qs/-/qs-4.0.0.tgz"
        },
        "raw-body": {
          "version": "2.1.2",
          "from": "raw-body@~2.1.2",
          "resolved": "https://registry.npmjs.org/raw-body/-/raw-body-2.1.2.tgz",
          "dependencies": {
            "unpipe": {
              "version": "1.0.0",
              "from": "unpipe@1.0.0",
              "resolved": "https://registry.npmjs.org/unpipe/-/unpipe-1.0.0.tgz"
            }
          }
        },
        "type-is": {
          "version": "1.6.5",
          "from": "type-is@~1.6.4",
          "resolved": "https://registry.npmjs.org/type-is/-/type-is-1.6.5.tgz",
          "dependencies": {
            "media-typer": {
              "version": "0.3.0",
              "from": "media-typer@0.3.0",
              "resolved": "https://registry.npmjs.org/media-typer/-/media-typer-0.3.0.tgz"
            },
            "mime-types": {
              "version": "2.1.3",
              "from": "mime-types@~2.1.3",
              "resolved": "https://registry.npmjs.org/mime-types/-/mime-types-2.1.3.tgz",
              "dependencies": {
                "mime-db": {
                  "version": "1.15.0",
                  "from": "mime-db@~1.15.0",
                  "resolved": "https://registry.npmjs.org/mime-db/-/mime-db-1.15.0.tgz"
                }
              }
            }
          }
        }
      }
    },
    "bytes": {
      "version": "3.1.0",
      "from": "bytes@3.1.0",
      "resolved": "https://registry.npmjs.org/bytes/-/bytes-3.1.0.tgz"
    },
    "content-disposition": {
      "version": "0.5.3",
      "from": "content-disposition@0.5.3",
      "resolved": "https://registry.npmjs.org/content-disposition/-/content-disposition-0.5.3.tgz"
    },
    "content-type": {
      "version": "1.0.4",
      "from": "content-type@~1.0.4",
      "resolved": "https://registry.npmjs.org/content-type/-/content-type-1.0.4.tgz"
    },
    "cookie": {
      "version": "0.4.0",
      "from": "cookie@0.4.0",
      "resolved": "https://registry.npmjs.org/cookie/-/cookie-0.4.0.tgz"
    },
    "cookie-signature": {
      "version": "1.0.6",
      "from": "cookie-signature@1.0.6",
      "resolved": "https://registry.npmjs.org/cookie-signature/-/cookie-signature-1.0.6.tgz"
    },
    "debug": {
      "version": "2.6.9",
      "from": "debug@2.6.9",
      "resolved": "https://registry.npmjs.org/debug/-/debug-2.6.9.tgz"
    },
    "depd": {
      "version": "1.1.2",
      "from": "depd@~1.1.2",
      "resolved": "https://registry.npmjs.org/depd/-/depd-1.1.2.tgz"
    },
    "destroy": {
      "version": "1.0.4",
      "from": "destroy@~1.0.4",
      "resolved": "https://registry.npmjs.org/destroy/-/destroy-1.0.4.tgz"
    },
    "dotenv": {
      "version": "8.0.0",
      "from": "dotenv",
      "resolved": "https://registry.npmjs.org/dotenv/-/dotenv-8.0.0.tgz"
    },
    "ee-first": {
      "version": "1.1.1",
      "from": "ee-first@1.1.1",
      "resolved": "https://registry.npmjs.org/ee-first/-/ee-first-1.1.1.tgz"
    },
    "ejs": {
      "version": "2.3.3",
      "from": "ejs@latest",
      "resolved": "https://registry.npmjs.org/ejs/-/ejs-2.3.3.tgz"
    },
    "encodeurl": {
      "version": "1.0.2",
      "from": "encodeurl@~1.0.2",
      "resolved": "https://registry.npmjs.org/encodeurl/-/encodeurl-1.0.2.tgz"
    },
    "escape-html": {
      "version": "1.0.3",
      "from": "escape-html@~1.0.3",
      "resolved": "https://registry.npmjs.org/escape-html/-/escape-html-1.0.3.tgz"
    },
    "etag": {
      "version": "1.8.1",
      "from": "etag@~1.8.1",
      "resolved": "https://registry.npmjs.org/etag/-/etag-1.8.1.tgz"
    },
    "express": {
      "version": "4.17.1",
      "from": "express@latest",
      "resolved": "https://registry.npmjs.org/express/-/express-4.17.1.tgz",
      "dependencies": {
        "body-parser": {
          "version": "1.19.0",
          "from": "body-parser@1.19.0",
          "resolved": "https://registry.npmjs.org/body-parser/-/body-parser-1.19.0.tgz"
        }
      }
    },
    "finalhandler": {
      "version": "1.1.2",
      "from": "finalhandler@~1.1.2",
      "resolved": "https://registry.npmjs.org/finalhandler/-/finalhandler-1.1.2.tgz"
    },
    "forwarded": {
      "version": "0.1.2",
      "from": "forwarded@~0.1.2",
      "resolved": "https://registry.npmjs.org/forwarded/-/forwarded-0.1.2.tgz"
    },
    "fresh": {
      "version": "0.5.2",
      "from": "fresh@0.5.2",
      "resolved": "https://registry.npmjs.org/fresh/-/fresh-0.5.2.tgz"
    },
    "http-errors": {
      "version": "1.7.2",
      "from": "http-errors@~1.7.2",
      "resolved": "https://registry.npmjs.org/http-errors/-/http-errors-1.7.2.tgz"
    },
    "iconv-lite": {
      "version": "0.4.24",
      "from": "iconv-lite@0.4.24",
      "resolved": "https://registry.npmjs.org/iconv-lite/-/iconv-lite-0.4.24.tgz"
    },
    "inherits": {
      "version": "2.0.3",
      "from": "inherits@2.0.3",
      "resolved": "https://registry.npmjs.org/inherits/-/inherits-2.0.3.tgz"
    },
    "ipaddr.js": {
      "version": "1.9.0",
      "from": "ipaddr.js@1.9.0",
      "resolved": "https://registry.npmjs.org/ipaddr.js/-/ipaddr.js-1.9.0.tgz"
    },
    "media-typer": {
      "version": "0.3.0",
      "from": "media-typer@0.3.0",
      "resolved": "https://registry.npmjs.org/media-typer/-/media-typer-0.3.0.tgz"
    },
    "merge-descriptors": {
      "version": "1.0.1",
      "from": "merge-descriptors@1.0.1",
      "resolved": "https://registry.npmjs.org/merge-descriptors/-/merge-descriptors-1.0.1.tgz"
    },
    "methods": {
      "version": "1.1.2",
      "from": "methods@~1.1.2",
      "resolved": "https://registry.npmjs.org/methods/-/methods-1.1.2.tgz"
    },
    "mime": {
      "version": "1.6.0",
      "from": "mime@1.6.0",
      "resolved": "https://registry.npmjs.org/mime/-/mime-1.6.0.tgz"
    },
    "mime-db": {
      "version": "1.40.0",
      "from": "mime-db@1.40.0",
      "resolved": "https://registry.npmjs.org/mime-db/-/mime-db-1.40.0.tgz"
    },
    "mime-types": {
      "version": "2.1.24",
      "from": "mime-types@~2.1.24",
      "resolved": "https://registry.npmjs.org/mime-types/-/mime-types-2.1.24.tgz"
    },
    "ms": {
      "version": "2.0.0",
      "from": "ms@2.0.0",
      "resolved": "https://registry.npmjs.org/ms/-/ms-2.0.0.tgz"
    },
    "negotiator": {
      "version": "0.6.2",
      "from": "negotiator@0.6.2",
      "resolved": "https://registry.npmjs.org/negotiator/-/negotiator-0.6.2.tgz"
    },
    "nodemailer": {
      "version": "6.2.1",
      "from": "nodemailer",
      "resolved": "https://registry.npmjs.org/nodemailer/-/nodemailer-6.2.1.tgz"
    },
    "on-finished": {
      "version": "2.3.0",
      "from": "on-finished@~2.3.0",
      "resolved": "https://registry.npmjs.org/on-finished/-/on-finished-2.3.0.tgz"
    },
    "parseurl": {
      "version": "1.3.3",
      "from": "parseurl@~1.3.3",
      "resolved": "https://registry.npmjs.org/parseurl/-/parseurl-1.3.3.tgz"
    },
    "path-to-regexp": {
      "version": "0.1.7",
      "from": "path-to-regexp@0.1.7",
      "resolved": "https://registry.npmjs.org/path-to-regexp/-/path-to-regexp-0.1.7.tgz"
    },
    "proxy-addr": {
      "version": "2.0.5",
      "from": "proxy-addr@~2.0.5",
      "resolved": "https://registry.npmjs.org/proxy-addr/-/proxy-addr-2.0.5.tgz"
    },
    "qs": {
      "version": "6.7.0",
      "from": "qs@6.7.0",
      "resolved": "https://registry.npmjs.org/qs/-/qs-6.7.0.tgz"
    },
    "range-parser": {
      "version": "1.2.1",
      "from": "range-parser@~1.2.1",
      "resolved": "https://registry.npmjs.org/range-parser/-/range-parser-1.2.1.tgz"
    },
    "raw-body": {
      "version": "2.4.0",
      "from": "raw-body@2.4.0",
      "resolved": "https://registry.npmjs.org/raw-body/-/raw-body-2.4.0.tgz"
    },
    "safe-buffer": {
      "version": "5.1.2",
      "from": "safe-buffer@5.1.2",
      "resolved": "https://registry.npmjs.org/safe-buffer/-/safe-buffer-5.1.2.tgz"
    },
    "safer-buffer": {
      "version": "2.1.2",
      "from": "safer-buffer@>= 2.1.2 < 3",
      "resolved": "https://registry.npmjs.org/safer-buffer/-/safer-buffer-2.1.2.tgz"
    },
    "send": {
      "version": "0.17.1",
      "from": "send@0.17.1",
      "resolved": "https://registry.npmjs.org/send/-/send-0.17.1.tgz",
      "dependencies": {
        "ms": {
          "version": "2.1.1",
          "from": "ms@2.1.1",
          "resolved": "https://registry.npmjs.org/ms/-/ms-2.1.1.tgz"
        }
      }
    },
    "serve-static": {
      "version": "1.14.1",
      "from": "serve-static@1.14.1",
      "resolved": "https://registry.npmjs.org/serve-static/-/serve-static-1.14.1.tgz"
    },
    "setprototypeof": {
      "version": "1.1.1",
      "from": "setprototypeof@1.1.1",
      "resolved": "https://registry.npmjs.org/setprototypeof/-/setprototypeof-1.1.1.tgz"
    },
    "statuses": {
      "version": "1.5.0",
      "from": "statuses@~1.5.0",
      "resolved": "https://registry.npmjs.org/statuses/-/statuses-1.5.0.tgz"
    },
    "toidentifier": {
      "version": "1.0.0",
      "from": "toidentifier@1.0.0",
      "resolved": "https://registry.npmjs.org/toidentifier/-/toidentifier-1.0.0.tgz"
    },
    "type-is": {
      "version": "1.6.18",
      "from": "type-is@~1.6.18",
      "resolved": "https://registry.npmjs.org/type-is/-/type-is-1.6.18.tgz"
    },
    "underscore": {
      "version": "1.9.1",
      "from": "underscore@latest",
      "resolved": "https://registry.npmjs.org/underscore/-/underscore-1.9.1.tgz"
    },
    "unpipe": {
      "version": "1.0.0",
      "from": "unpipe@~1.0.0",
      "resolved": "https://registry.npmjs.org/unpipe/-/unpipe-1.0.0.tgz"
    },
    "utils-merge": {
      "version": "1.0.1",
      "from": "utils-merge@1.0.1",
      "resolved": "https://registry.npmjs.org/utils-merge/-/utils-merge-1.0.1.tgz"
    },
    "vary": {
      "version": "1.1.2",
      "from": "vary@~1.1.2",
      "resolved": "https://registry.npmjs.org/vary/-/vary-1.1.2.tgz"
    }
  }
}
